[
    {
    course:"Cauculus",
    professor:"Tim Burton",
    difficult:"ease",
    start_time:"10:00",
    end_time:"12:00"
    },{
    course:"Algebra",
    professor:"Silvio Melo",
    difficult:"hard",
    start_time:"8:00",
    end_time:"10:00"
    },{
    course:"Web Applications",
    professor:"Bhattacharya Utpal",
    difficult:"medium",
    start_time:"10:00",
    end_time:"12:00"
    },{
    course:"Programming Languages",
    professor:"Fernando Castor",
    difficult:"hard",
    start_time:"14:00",
    end_time:"16:00"
    },{
    course:"Economics",
    professor:"Guido Mantega",
    difficult:"medium",
    start_time:"15:00",
    end_time:"17:00"
    },{
    course:"Instrumental Music",
    professor:"Alceu Valença",
    difficult:"impossível",
    start_time:"12:00",
    end_time:"15:00"
    },
]

var records = [
    [
        {
        course:"Cauculus",
        professor:"Tim Burton",
        grade: 7.00,
        status: "Aprovado"
        
        },{
        course:"Instrumental Music",
        professor:"Alceu Valença",
        grade:2.50,
        status:"Reprovado"
        }
    ],
    [
        {
        course:"Web Applications",
        professor:"Bhattacharya Utpal",
        grade:3.75,
        status:"Reprovado"
        },{
        course:"Algebra",
        professor:"Silvio Melo",
        grade: 9.00,
        status: "Aprovado"
        },{
        course:"Programming Languages",
        professor:"Fernando Castor",
        grade:7.20,
        status:"Aprovado"
        }
    ],
    [
        {
        course:"Economics",
        professor:"Guido Mantega",
        grade:7.50,
        status:"Aprovado"
        },{
        course:"Instrumental Music",
        professor:"Alceu Valença",
        grade:5.50,
        status:"Reprovado"
        }
    ]

]